./t1.txt
./t12.txt
./t15.txt
./t16.txt
./t17.txt
./t19.txt
./t26.txt
./t29.txt
./t30.txt
./t33.txt
./t34.txt
./t36.txt
./t37.txt
./t38.txt
./t39.txt
./t40.txt
./t41.txt
./t42.txt
./t48.txt
./t49.txt
./t50.txt
./t51.txt
./t52.txt
./t53.txt
./t54.txt
./t55.txt
./t56.txt
./t57.txt
./t58.txt
./t59.txt
./t60.txt
./t61.txt
./t62.txt
./t63.txt
./t64.txt
./t65.txt
./t71.txt
./t72.txt
./t73.txt
./t78.txt
./t80.txt
./t81.txt
./t82.txt
./t83.txt
./t84.txt
./t85.txt
./t86.txt
./t87.txt
./t89.txt
./t90.txt
./t91.txt
./t95.txt
./t97.txt
./t98.txt
./t101.txt
./t102.txt
./t106.txt
./t108.txt
./t109.txt
./t110.txt
./t111.txt
./t112.txt
./t116.txt
./t117.txt
./t118.txt
./t119.txt
./t120.txt
./t121.txt
./t122.txt
./t126.txt
./t127.txt
./t128.txt
./t130.txt
./t131.txt
./t132.txt
./t136.txt
./t137.txt
./t138.txt
./t140.txt
./t141.txt
./t142.txt
./t147.txt
./t148.txt
./t150.txt
./t151.txt
./t152.txt
./t157.txt
./t158.txt
./t159.txt
